{
  "development": {
    "username": "postgres",
    "password": "password",
    "database": "hackathon",
    "host": "db",
    "dialect": "postgres"
  },
  "test": {
    "username": "postgres",
    "password": "password",
    "database": "hackathon",
    "host": "db",
    "dialect": "postgres"
  },
  "production": {
    "username": "postgres",
    "password": "password",
    "database": "hackathon",
    "host": "db",
    "dialect": "postgres"
  }
}
